{
    "basename": "asr-intrinsics_04-524ec3a",
    "cmd": "lfortran --show-asr --no-color {infile} -o {outfile}",
    "infile": "tests/../integration_tests/intrinsics_04.f90",
    "infile_hash": "e57796259cf2dba2b8541517d9e379884b1f3f5dda7454b8d960954f",
    "outfile": null,
    "outfile_hash": null,
    "stdout": "asr-intrinsics_04-524ec3a.stdout",
    "stdout_hash": "cc14154acd7f3c97e3acb8f4a9142f6711467e026b18e35e21a6fa0b",
    "stderr": null,
    "stderr_hash": null,
    "returncode": 0
}