{
    "basename": "asr-intrinsics_14-302666f",
    "cmd": "lfortran --show-asr --no-color {infile} -o {outfile}",
    "infile": "tests/../integration_tests/intrinsics_14.f90",
    "infile_hash": "835b18f83de4b2d6dbd53b826a82a13f7abc905ebcef882374ca27fc",
    "outfile": null,
    "outfile_hash": null,
    "stdout": "asr-intrinsics_14-302666f.stdout",
    "stdout_hash": "67e24372d56d4f8e707141b121257ebc61c3f11e5187e7e7182f00c5",
    "stderr": null,
    "stderr_hash": null,
    "returncode": 0
}