{
    "basename": "pass_flip_sign-flip_sign-16b288c",
    "cmd": "lfortran --pass=flip_sign --show-asr --no-color {infile} -o {outfile}",
    "infile": "tests/../integration_tests/flip_sign.f90",
    "infile_hash": "12739178c354710c6f6bbeb834508a7932ae385c1340b0c08bca8b8d",
    "outfile": null,
    "outfile_hash": null,
    "stdout": "pass_flip_sign-flip_sign-16b288c.stdout",
    "stdout_hash": "bb31d2a3b7cce4ba060f524f9d5cc5402f8d76a037ee1082ee2c3299",
    "stderr": null,
    "stderr_hash": null,
    "returncode": 0
}